{
  "name": "cockpit-e2e",
  "$schema": "../../node_modules/nx/schemas/project-schema.json",
  "sourceRoot": "apps/cockpit-e2e/src",
  "projectType": "application",
  "targets": {
    "e2e": {
      "executor": "@nx/cypress:cypress",
      "outputs": ["{workspaceRoot}/dist/cypress/apps/cockpit-e2e"],
      "options": {
        "cypressConfig": "apps/cockpit-e2e/cypress.config.ts",
        "devServerTarget": "cockpit:serve",
        "testingType": "e2e"
      },
      "configurations": {
        "ci": {
          "devServerTarget": "cockpit:serve:production"
        }
      }
    },
    "lint": {
      "executor": "@nx/eslint:lint",
      "outputs": ["{options.outputFile}"]
    }
  },
  "tags": [],
  "implicitDependencies": ["cockpit"]
}
